{
  "success": true,
  "message": "success",
  "code": 200,
  "data": {
    "pageIndex": 1,
    "pageSize": 10,
    "totalPage": 5,
    "totalCount": 50,
    "currentPageRecords": [
      {
        "taskId": 53,
        "taskName": "投放设备",
        "taskStatus": 3,
        "createType": 1,
        "innerCode": "037900004",
        "userId": 1,
        "userName": "管理员",
        "desc": "测试",
        "ctime": "2020-04-17T15:08:01",
        "utime": "2020-04-17T15:08:08",
        "productTypeId": 1,
        "expect": "2020-04-18T00:00:00",
        "assignorId": 0,
        "taskStatusTypeEntity": { "statusId": 3, "statusName": "完成" },
        "taskType": { "typeId": 1, "typeName": "投放工单" }
      },
      {
        "taskId": 52,
        "taskName": "测试补货",
        "taskStatus": 3,
        "createType": 1,
        "innerCode": "037900004",
        "userId": 1,
        "userName": "管理员",
        "desc": "补货",
        "ctime": "2020-04-17T15:06:46",
        "utime": "2020-04-17T15:06:56",
        "productTypeId": 4,
        "expect": "2020-04-18T00:00:00",
        "assignorId": 0,
        "taskStatusTypeEntity": { "statusId": 3, "statusName": "完成" },
        "taskType": { "typeId": 4, "typeName": "撤机工单" }
      },
      {
        "taskId": 51,
        "taskName": "饮料补货",
        "taskStatus": 3,
        "createType": 1,
        "innerCode": "037900004",
        "userId": 1,
        "userName": "管理员",
        "desc": "测试用",
        "ctime": "2020-04-14T11:04:18",
        "utime": "2020-05-29T16:17:08",
        "productTypeId": 2,
        "expect": "2020-04-14T00:00:00",
        "assignorId": 0,
        "taskStatusTypeEntity": { "statusId": 3, "statusName": "完成" },
        "taskType": { "typeId": 2, "typeName": "补货工单" }
      },
      {
        "taskId": 50,
        "taskName": "补货测试",
        "taskStatus": 3,
        "createType": 1,
        "innerCode": "037900004",
        "userId": 1,
        "userName": "管理员",
        "desc": "测试",
        "ctime": "2020-03-06T16:02:21",
        "utime": "2020-03-06T16:02:26",
        "productTypeId": 2,
        "expect": "2020-03-06T00:00:00",
        "assignorId": 0,
        "taskStatusTypeEntity": { "statusId": 3, "statusName": "完成" },
        "taskType": { "typeId": 2, "typeName": "补货工单" }
      },
      {
        "taskId": 49,
        "taskName": "037900020自动补货工单2020-03-06",
        "taskStatus": 3,
        "createType": 0,
        "innerCode": "037900020",
        "userId": 1,
        "userName": "管理员",
        "desc": "自动补货工单",
        "ctime": "2020-03-06T09:00:00",
        "utime": "2020-03-06T12:44:03",
        "productTypeId": 2,
        "expect": "2020-03-06T00:00:00",
        "assignorId": 2,
        "taskStatusTypeEntity": { "statusId": 3, "statusName": "完成" },
        "taskType": { "typeId": 2, "typeName": "补货工单" }
      },
      {
        "taskId": 48,
        "taskName": "投放037900020",
        "taskStatus": 3,
        "createType": 1,
        "innerCode": "037900020",
        "userId": 1,
        "userName": "管理员",
        "desc": "037900020",
        "ctime": "2020-03-05T11:17:19",
        "utime": "2020-03-05T11:22:31",
        "productTypeId": 1,
        "expect": "2020-03-06T00:00:00",
        "assignorId": 0,
        "taskStatusTypeEntity": { "statusId": 3, "statusName": "完成" },
        "taskType": { "typeId": 1, "typeName": "投放工单" }
      },
      {
        "taskId": 47,
        "taskName": "01000011自动补货工单2019-12-16",
        "taskStatus": 1,
        "createType": 0,
        "innerCode": "01000011",
        "userId": 1,
        "userName": "管理员",
        "desc": "自动补货工单",
        "ctime": "2019-12-16T18:00:00",
        "utime": "2019-12-16T18:00:00",
        "productTypeId": 2,
        "expect": "2019-12-16T00:00:00",
        "assignorId": 2,
        "taskStatusTypeEntity": { "statusId": 1, "statusName": "进行" },
        "taskType": { "typeId": 2, "typeName": "补货工单" }
      },
      {
        "taskId": 46,
        "taskName": "01000011补货工单2019-12-10",
        "taskStatus": 3,
        "createType": 1,
        "innerCode": "01000011",
        "userId": 1,
        "userName": "管理员",
        "desc": "01000011投放工单2019-12-10",
        "ctime": "2019-12-10T15:27:19",
        "utime": "2019-12-16T14:41:34",
        "productTypeId": 2,
        "expect": "2019-12-10T00:00:00",
        "assignorId": 0,
        "taskStatusTypeEntity": { "statusId": 3, "statusName": "完成" },
        "taskType": { "typeId": 2, "typeName": "补货工单" }
      },
      {
        "taskId": 45,
        "taskName": "01000011投放工单2019-12-10",
        "taskStatus": 3,
        "createType": 1,
        "innerCode": "01000011",
        "userId": 1,
        "userName": "管理员",
        "desc": "01000011投放工单2019-12-10",
        "ctime": "2019-12-10T15:26:33",
        "utime": "2019-12-10T15:26:37",
        "productTypeId": 1,
        "expect": "2019-12-10T00:00:00",
        "assignorId": 0,
        "taskStatusTypeEntity": { "statusId": 3, "statusName": "完成" },
        "taskType": { "typeId": 1, "typeName": "投放工单" }
      },
      {
        "taskId": 43,
        "taskName": "075400001自动补货工单2019-12-07",
        "taskStatus": 1,
        "createType": 0,
        "innerCode": "075400001",
        "userId": 1,
        "userName": "管理员",
        "desc": "自动补货工单",
        "ctime": "2019-12-07T18:00:00",
        "utime": "2019-12-07T18:00:00",
        "productTypeId": 2,
        "expect": "2019-12-07T00:00:00",
        "assignorId": 2,
        "taskStatusTypeEntity": { "statusId": 1, "statusName": "进行" },
        "taskType": { "typeId": 2, "typeName": "补货工单" }
      }
    ]
  }
}
