{
	"success": true,
	"message": "success",
	"code": 200,
	"data": {
		"pageIndex": 1,
		"pageSize": 10,
		"totalPage": 2,
		"totalCount": 15,
		"currentPageRecords": [{
			"skuId": 19,
			"skuName": "1231",
			"skuImage": "https://lkd-store.oss-cn-beijing.aliyuncs.com/image/0b33d7fc-9cd8-479e-b907-f279b7e600ca线程的生命周期及五种基本状态.png",
			"price": 10,
			"realPrice": 0,
			"ctime": "2020-06-10T18:01:40",
			"utime": "2020-06-10T18:01:40",
			"classId": 1,
			"discount": false,
			"unit": "100",
			"skuClass": null,
			"capacity": 0
		}, {
			"skuId": 16,
			"skuName": "草莓",
			"skuImage": "https://lkd-store.oss-cn-beijing.aliyuncs.com/image/3b784db2-7c5e-4e41-8a61-e089660cf8d019300001357258133412489354717.jpeg",
			"price": 555,
			"realPrice": 0,
			"ctime": "2020-06-05T22:32:42",
			"utime": "2020-03-05T13:45:31",
			"classId": 1,
			"discount": false,
			"unit": "500ggj",
			"skuClass": null,
			"capacity": 0
		}, {
			"skuId": 6,
			"skuName": "统一阿萨姆奶茶",
			"skuImage": "https://lkd-store.oss-cn-beijing.aliyuncs.com/image/92fe3aea-f6fc-424a-a481-9465637cbb70WIN_20200415_22_44_02_Pro.jpg",
			"price": 2,
			"realPrice": 1,
			"ctime": "2020-06-03T20:37:04",
			"utime": "2019-10-28T16:30:03",
			"classId": 1,
			"discount": false,
			"unit": "100g",
			"skuClass": null,
			"capacity": 0
		}, {
			"skuId": 10,
			"skuName": "可口可乐瓶装",
			"skuImage": "https://lkd-store.oss-cn-beijing.aliyuncs.com/image/436750f5-02bc-4f3d-841d-cf338c09be62图层 20.png",
			"price": 2,
			"realPrice": 0,
			"ctime": "2020-06-03T20:36:51",
			"utime": "2019-11-28T16:40:19",
			"classId": 1,
			"discount": false,
			"unit": "1111",
			"skuClass": null,
			"capacity": 0
		}, {
			"skuId": 18,
			"skuName": "是是是",
			"skuImage": "https://lkd-store.oss-cn-beijing.aliyuncs.com/image/ad5eb445-4c39-4bbe-8111-9d14d6f6efb8timg.jpg",
			"price": 22222222,
			"realPrice": 0,
			"ctime": "2020-05-08T16:10:11",
			"utime": "2020-05-08T16:10:11",
			"classId": 4,
			"discount": false,
			"unit": "111",
			"skuClass": null,
			"capacity": 0
		}, {
			"skuId": 14,
			"skuName": "红颜草莓",
			"skuImage": "https://lkd-store.oss-cn-beijing.aliyuncs.com/image/85e45b15-55e1-462c-8b00-8f1905fadd83图层 22.png",
			"price": 4,
			"realPrice": 0,
			"ctime": "2020-05-03T20:57:34",
			"utime": "2020-03-03T16:45:03",
			"classId": 2,
			"discount": false,
			"unit": "250kg",
			"skuClass": null,
			"capacity": 0
		}, {
			"skuId": 7,
			"skuName": "青梅绿茶",
			"skuImage": "https://lkd-store.oss-cn-beijing.aliyuncs.com/image/aa0769e5-038e-4403-aec7-f607dc8bae90图层 15.png",
			"price": 2,
			"realPrice": 1,
			"ctime": "2020-04-28T10:38:33",
			"utime": "2019-11-12T01:18:27",
			"classId": 1,
			"discount": false,
			"unit": "500ml",
			"skuClass": null,
			"capacity": 0
		}, {
			"skuId": 17,
			"skuName": "大饭店",
			"skuImage": "https://lkd-store.oss-cn-beijing.aliyuncs.com/image/67f8c82f-ae9c-4eae-9181-96b5e10b7846蓝宫大饭店.jpg",
			"price": 5,
			"realPrice": 0,
			"ctime": "2020-04-12T00:27:25",
			"utime": "2020-04-12T00:27:25",
			"classId": 3,
			"discount": false,
			"unit": "500",
			"skuClass": null,
			"capacity": 0
		}, {
			"skuId": 15,
			"skuName": "苹果",
			"skuImage": "https://lkd-store.oss-cn-beijing.aliyuncs.com/image/3266417f-d4d3-4ecc-8199-cab773a646f5下载.jpg",
			"price": 5,
			"realPrice": 0,
			"ctime": "2020-03-05T11:33:56",
			"utime": "2020-03-05T11:10:08",
			"classId": 2,
			"discount": false,
			"unit": "1个",
			"skuClass": null,
			"capacity": 0
		}, {
			"skuId": 13,
			"skuName": "人偶",
			"skuImage": "https://lkd-store.oss-cn-beijing.aliyuncs.com/image/8b5845ef-c2a2-4f68-a91d-601448c109e2admin.png",
			"price": 10,
			"realPrice": 0,
			"ctime": "2020-03-04T15:58:58",
			"utime": "2019-12-12T12:01:16",
			"classId": 3,
			"discount": false,
			"unit": "100g",
			"skuClass": null,
			"capacity": 0
		}]
	}
}